Ring,Label,pan,tilt,zoom
1,SUNset1,-135.8987,3.9980,230
2,SUNrise2,11.0082,2.5537,1
3,SUNrise3,6.5253,2.6043,1
4,SUNrise4,-127.904,5.7654,1
5,SUNset5,15.247,4.4768,1
6,SUNset6,-14.0323,1.2019,186

> getCameraAbsolutePosition(getCamera(1))
[1] "-135.8987" "3.9980"    "230"       "5000"      "5000"      "off"       "on"       
> getCameraAbsolutePosition(getCamera(2))
[1] "11.0082" "2.5537"  "1"       "3500"    "on"      "on"     
> getCameraAbsolutePosition(getCamera(3))
[1] "6.5253" "2.6043" "1"      "3500"   "on"     "on"    
> getCameraAbsolutePosition(getCamera(4))
[1] "-127.9040" "5.7654"    "1"         "3500"      "on"        "on"       
> getCameraAbsolutePosition(getCamera(5))
[1] "15.2470" "4.4768"  "1"       "3500"    "on"      "on"     
> getCameraAbsolutePosition(getCamera(6))
[1] "-14.0323" "1.2019"   "186"      "5000"     "on"       "on"   
